…
1.  Remove the k from household\_income to get just the number
2.  Make a math\_test\_score and a reading\_test\_score column and store a number in there (this will make the dataset half as long)

``` r
scores <- scores %>% 
  mutate(household_income = household_income %>% str_replace("k", "") %>% as.numeric(),
         test_name = test_score %>% str_extract("[:alpha:]+"),
         test_score = test_score %>% str_extract("\\d+") %>% as.numeric()) %>% 
  spread(key = test_name, value = test_score)

scores
```

    ## # A tibble: 480 x 6
    ##    student_id class_size household_income gender  math reading
    ##  *      <int>      <chr>            <dbl>  <chr> <dbl>   <dbl>
    ##  1          1     medium               62   male   119      93
    ##  2          2      small               88   male   143      84
    ##  3          3      large               30   male    89     109
    ##  4          4      large               24   male   108     100
    ##  5          5     medium               57 female    71      98
    ##  6          6      large               34 female   101     109
    ##  7          7      small               67 female   110     106
    ##  8          8     medium               43 female    99     121
    ##  9          9      large               38 female   103      91
    ## 10         10      small               74 female   110      93
    ## # ... with 470 more rows
…
