…
Part 1: Generating response data
================================

``` r
n_items <- 50

# create dataframe with the two inputs: number of students and item difficulties
(simulations <- data_frame(n_students = rep(1:10 * 10, each = 20)) %>% 
                mutate(item_difficulties = rerun(nrow(.), rnorm(n_items, mean = 0, sd = 1))))
```

    ## # A tibble: 200 x 2
    ##    n_students item_difficulties
    ##         <dbl> <list>           
    ##  1       10.0 <dbl [50]>       
    ##  2       10.0 <dbl [50]>       
    ##  3       10.0 <dbl [50]>       
    ##  4       10.0 <dbl [50]>       
    ##  5       10.0 <dbl [50]>       
    ##  6       10.0 <dbl [50]>       
    ##  7       10.0 <dbl [50]>       
    ##  8       10.0 <dbl [50]>       
    ##  9       10.0 <dbl [50]>       
    ## 10       10.0 <dbl [50]>       
    ## # ... with 190 more rows
…
    # can't have item with all incorrect or all correct responses
    if(all(colSums(responses) != 0) & all(colSums(responses) != n_students)){
      return(responses)
    }
  }
}

# apply this function
simulations$responses <- simulations %>% pmap(simulate_responses)

# inputs and simulated data are well organized in our data frame
simulations
```

    ## # A tibble: 200 x 3
    ##    n_students item_difficulties responses             
    ##         <dbl> <list>            <list>                
    ##  1       10.0 <dbl [50]>        <data.frame [10 × 50]>
    ##  2       10.0 <dbl [50]>        <data.frame [10 × 50]>
    ##  3       10.0 <dbl [50]>        <data.frame [10 × 50]>
    ##  4       10.0 <dbl [50]>        <data.frame [10 × 50]>
    ##  5       10.0 <dbl [50]>        <data.frame [10 × 50]>
    ##  6       10.0 <dbl [50]>        <data.frame [10 × 50]>
    ##  7       10.0 <dbl [50]>        <data.frame [10 × 50]>
    ##  8       10.0 <dbl [50]>        <data.frame [10 × 50]>
    ##  9       10.0 <dbl [50]>        <data.frame [10 × 50]>
    ## 10       10.0 <dbl [50]>        <data.frame [10 × 50]>
    ## # ... with 190 more rows
…
``` r
# write a function to take responses data, fit model, and extract estimated item difficulties
estimate_item_difficulties <- function(responses){
  irt_model <- mirt(data = responses, model = 1, itemtype = "Rasch", verbose = FALSE)
  
  coef(irt_model)[1:n_items] %>% 
    map_dbl(~ .[1, 2]) # a bit dangerous: estimated item difficulties are 2nd value
}

# apply that function
(simulations <- simulations %>% 
  mutate(item_difficulties_estimated = responses %>% map(estimate_item_difficulties)))
```

    ## # A tibble: 200 x 4
    ##    n_students item_difficulties responses              item_difficulties_…
    ##         <dbl> <list>            <list>                 <list>             
    ##  1       10.0 <dbl [50]>        <data.frame [10 × 50]> <dbl [50]>         
    ##  2       10.0 <dbl [50]>        <data.frame [10 × 50]> <dbl [50]>         
    ##  3       10.0 <dbl [50]>        <data.frame [10 × 50]> <dbl [50]>         
    ##  4       10.0 <dbl [50]>        <data.frame [10 × 50]> <dbl [50]>         
    ##  5       10.0 <dbl [50]>        <data.frame [10 × 50]> <dbl [50]>         
    ##  6       10.0 <dbl [50]>        <data.frame [10 × 50]> <dbl [50]>         
    ##  7       10.0 <dbl [50]>        <data.frame [10 × 50]> <dbl [50]>         
    ##  8       10.0 <dbl [50]>        <data.frame [10 × 50]> <dbl [50]>         
    ##  9       10.0 <dbl [50]>        <data.frame [10 × 50]> <dbl [50]>         
    ## 10       10.0 <dbl [50]>        <data.frame [10 × 50]> <dbl [50]>         
    ## # ... with 190 more rows
…
